08 — Distance Premium and Floor Mechanisms
…
premium_comparison <- df_main %>%
  group_by(year) %>%
  summarise(
    raw_premium       = coef(lm(sg_total ~ dist_vs_field))[["dist_vs_field"]] * 10,
    conditional_premium = coef(lm(sg_total ~ dist_vs_field + sg_apr + sg_arg + sg_putt))[["dist_vs_field"]] * 10,
    .groups = "drop"
  )

premium_comparison %>% print(n = 10)

## # A tibble: 22 x 3
##     year raw_premium conditional_premium
##    <int>       <dbl>               <dbl>
##  1  2004      0.0584               0.191
##  2  2005      0.151                0.166
##  3  2006      0.0697               0.218
##  4  2007      0.0353               0.212
##  5  2008      0.0482               0.232
##  6  2009      0.159                0.213
##  7  2010      0.133                0.290
##  8  2011      0.116                0.227
##  9  2012      0.240                0.265
## 10  2013      0.115                0.196
## # i 12 more rows
…
